The system is: Windows - 10.0.19043 - AMD64
Compiling the C compiler identification source file "CMakeCCompilerId.c" succeeded.
Compiler: C:/mingw64/bin/x86_64-w64-mingw32-gcc.exe 
Build flags: 
Id flags:  

The output was:
0


Compilation of the C compiler identification source "CMakeCCompilerId.c" produced "a.exe"

The C compiler identification is GNU, found in "F:/RnD/ai-rnd/OpenCV_CPP/cvSaveVideoToFile/build/CMakeFiles/3.21.1/CompilerIdC/a.exe"

Compiling the CXX compiler identification source file "CMakeCXXCompilerId.cpp" succeeded.
Compiler: C:/mingw64/bin/x86_64-w64-mingw32-g++.exe 
Build flags: 
Id flags:  

The output was:
0


Compilation of the CXX compiler identification source "CMakeCXXCompilerId.cpp" produced "a.exe"

The CXX compiler identification is GNU, found in "F:/RnD/ai-rnd/OpenCV_CPP/cvSaveVideoToFile/build/CMakeFiles/3.21.1/CompilerIdCXX/a.exe"

Detecting C compiler ABI info compiled with the following output:
Change Dir: F:/RnD/ai-rnd/OpenCV_CPP/cvSaveVideoToFile/build/CMakeFiles/CMakeTmp

Run Build Command(s):C:/mingw64/bin/mingw32-make.exe -f Makefile cmTC_2e448/fast && C:/mingw64/bin/mingw32-make.exe  -f CMakeFiles\cmTC_2e448.dir\build.make CMakeFiles/cmTC_2e448.dir/build
mingw32-make[1]: Entering directory 'F:/RnD/ai-rnd/OpenCV_CPP/cvSaveVideoToFile/build/CMakeFiles/CMakeTmp'
Building C object CMakeFiles/cmTC_2e448.dir/CMakeCCompilerABI.c.obj
C:\mingw64\bin\x86_64-w64-mingw32-gcc.exe   -v -o CMakeFiles\cmTC_2e448.dir\CMakeCCompilerABI.c.obj -c "C:\Program Files\CMake\share\cmake-3.21\Modules\CMakeCCompilerABI.c"
Using built-in specs.
COLLECT_GCC=C:\mingw64\bin\x86_64-w64-mingw32-gcc.exe
OFFLOAD_TARGET_NAMES=nvptx-none
Target: x86_64-w64-mingw32
Configured with: ../configure --prefix=/R/winlibs64_stage/inst_gcc-11.2.0/share/gcc --build=x86_64-w64-mingw32 --host=x86_64-w64-mingw32 --enable-offload-targets=nvptx-none --with-pkgversion='MinGW-W64 x86_64-posix-seh, built by Brecht Sanders' --with-tune=generic --enable-checking=release --enable-threads=posix --disable-sjlj-exceptions --disable-libunwind-exceptions --disable-serial-configure --disable-bootstrap --enable-host-shared --enable-plugin --disable-default-ssp --disable-rpath --enable-libstdcxx-pch --enable-libstdcxx-time=yes --disable-libstdcxx-debug --disable-version-specific-runtime-libs --with-stabs --disable-symvers --enable-languages=c,c++,fortran,lto,objc,obj-c++,d,jit --disable-gold --disable-nls --disable-stage1-checking --disable-win32-registry --disable-multilib --enable-ld --enable-libquadmath --enable-libada --enable-libssp --enable-libstdcxx --enable-lto --enable-fully-dynamic-string --enable-libgomp --enable-graphite --enable-mingw-wildcard --with-mpc=/d/Prog/winlibs64_stage/custombuilt --with-mpfr=/d/Prog/winlibs64_stage/custombuilt --with-gmp=/d/Prog/winlibs64_stage/custombuilt --with-isl=/d/Prog/winlibs64_stage/custombuilt --enable-install-libiberty --enable-__cxa_atexit --without-included-gettext --with-diagnostics-color=auto --enable-clocale=generic --with-libiconv --with-system-zlib --with-build-sysroot=/R/winlibs64_stage/gcc-11.2.0/build_mingw/mingw-w64 CFLAGS=-I/d/Prog/winlibs64_stage/custombuilt/include/libdl-win32
Thread model: posix
Supported LTO compression algorithms: zlib zstd
gcc version 11.2.0 (MinGW-W64 x86_64-posix-seh, built by Brecht Sanders) 
COLLECT_GCC_OPTIONS='-v' '-o' 'CMakeFiles\cmTC_2e448.dir\CMakeCCompilerABI.c.obj' '-c' '-mtune=generic' '-march=x86-64' '-dumpdir' 'CMakeFiles\cmTC_2e448.dir\'
 c:/mingw64/bin/../libexec/gcc/x86_64-w64-mingw32/11.2.0/cc1.exe -quiet -v -iprefix c:\mingw64\bin\../lib/gcc/x86_64-w64-mingw32/11.2.0/ -D_REENTRANT C:\Program Files\CMake\share\cmake-3.21\Modules\CMakeCCompilerABI.c -quiet -dumpdir CMakeFiles\cmTC_2e448.dir\ -dumpbase CMakeCCompilerABI.c.c -dumpbase-ext .c -mtune=generic -march=x86-64 -version -o C:\Users\MoWin\AppData\Local\Temp\cccFjNT8.s
GNU C17 (MinGW-W64 x86_64-posix-seh, built by Brecht Sanders) version 11.2.0 (x86_64-w64-mingw32)
	compiled by GNU C version 11.2.0, GMP version 6.2.1, MPFR version 4.1.0, MPC version 1.2.1, isl version isl-0.24-GMP

GGC heuristics: --param ggc-min-expand=100 --param ggc-min-heapsize=131072
ignoring duplicate directory "c:/mingw64/lib/gcc/../../lib/gcc/x86_64-w64-mingw32/11.2.0/include"
ignoring nonexistent directory "R:/winlibs64_stage/inst_gcc-11.2.0/share/gcc/include"
ignoring nonexistent directory "/R/winlibs64_stage/inst_gcc-11.2.0/share/gcc/include"
ignoring duplicate directory "c:/mingw64/lib/gcc/../../lib/gcc/x86_64-w64-mingw32/11.2.0/include-fixed"
ignoring duplicate directory "c:/mingw64/lib/gcc/../../lib/gcc/x86_64-w64-mingw32/11.2.0/../../../../x86_64-w64-mingw32/include"
ignoring nonexistent directory "/mingw/include"
#include "..." search starts here:
#include <...> search starts here:
 c:\mingw64\bin\../lib/gcc/x86_64-w64-mingw32/11.2.0/include
 c:\mingw64\bin\../lib/gcc/x86_64-w64-mingw32/11.2.0/../../../../include
 c:\mingw64\bin\../lib/gcc/x86_64-w64-mingw32/11.2.0/include-fixed
 c:\mingw64\bin\../lib/gcc/x86_64-w64-mingw32/11.2.0/../../../../x86_64-w64-mingw32/include
End of search list.
GNU C17 (MinGW-W64 x86_64-posix-seh, built by Brecht Sanders) version 11.2.0 (x86_64-w64-mingw32)
	compiled by GNU C version 11.2.0, GMP version 6.2.1, MPFR version 4.1.0, MPC version 1.2.1, isl version isl-0.24-GMP

GGC heuristics: --param ggc-min-expand=100 --param ggc-min-heapsize=131072
Compiler executable checksum: 459e52f402ceae733f4c0f9feceac03d
COLLECT_GCC_OPTIONS='-v' '-o' 'CMakeFiles\cmTC_2e448.dir\CMakeCCompilerABI.c.obj' '-c' '-mtune=generic' '-march=x86-64' '-dumpdir' 'CMakeFiles\cmTC_2e448.dir\'
 c:/mingw64/bin/../lib/gcc/x86_64-w64-mingw32/11.2.0/../../../../x86_64-w64-mingw32/bin/as.exe -v -o CMakeFiles\cmTC_2e448.dir\CMakeCCompilerABI.c.obj C:\Users\MoWin\AppData\Local\Temp\cccFjNT8.s
GNU assembler version 2.37 (x86_64-w64-mingw32) using BFD version (Binutils for MinGW-W64 x86_64, built by Brecht Sanders) 2.37
COMPILER_PATH=c:/mingw64/bin/../libexec/gcc/x86_64-w64-mingw32/11.2.0/;c:/mingw64/bin/../libexec/gcc/;c:/mingw64/bin/../lib/gcc/x86_64-w64-mingw32/11.2.0/../../../../x86_64-w64-mingw32/bin/
LIBRARY_PATH=c:/mingw64/bin/../lib/gcc/x86_64-w64-mingw32/11.2.0/;c:/mingw64/bin/../lib/gcc/;c:/mingw64/bin/../lib/gcc/x86_64-w64-mingw32/11.2.0/../../../../x86_64-w64-mingw32/lib/../lib/;c:/mingw64/bin/../lib/gcc/x86_64-w64-mingw32/11.2.0/../../../../lib/;c:/mingw64/bin/../lib/gcc/x86_64-w64-mingw32/11.2.0/../../../../x86_64-w64-mingw32/lib/;c:/mingw64/bin/../lib/gcc/x86_64-w64-mingw32/11.2.0/../../../
COLLECT_GCC_OPTIONS='-v' '-o' 'CMakeFiles\cmTC_2e448.dir\CMakeCCompilerABI.c.obj' '-c' '-mtune=generic' '-march=x86-64' '-dumpdir' 'CMakeFiles\cmTC_2e448.dir\CMakeCCompilerABI.c.'
Linking C executable cmTC_2e448.exe
"C:\Program Files\CMake\bin\cmake.exe" -E cmake_link_script CMakeFiles\cmTC_2e448.dir\link.txt --verbose=1
"C:\Program Files\CMake\bin\cmake.exe" -E rm -f CMakeFiles\cmTC_2e448.dir/objects.a
C:\mingw64\bin\ar.exe qc CMakeFiles\cmTC_2e448.dir/objects.a @CMakeFiles\cmTC_2e448.dir\objects1.rsp
C:\mingw64\bin\x86_64-w64-mingw32-gcc.exe  -v -Wl,--whole-archive CMakeFiles\cmTC_2e448.dir/objects.a -Wl,--no-whole-archive -o cmTC_2e448.exe -Wl,--out-implib,libcmTC_2e448.dll.a -Wl,--major-image-version,0,--minor-image-version,0 
Using built-in specs.
COLLECT_GCC=C:\mingw64\bin\x86_64-w64-mingw32-gcc.exe
COLLECT_LTO_WRAPPER=c:/mingw64/bin/../libexec/gcc/x86_64-w64-mingw32/11.2.0/lto-wrapper.exe
OFFLOAD_TARGET_NAMES=nvptx-none
Target: x86_64-w64-mingw32
Configured with: ../configure --prefix=/R/winlibs64_stage/inst_gcc-11.2.0/share/gcc --build=x86_64-w64-mingw32 --host=x86_64-w64-mingw32 --enable-offload-targets=nvptx-none --with-pkgversion='MinGW-W64 x86_64-posix-seh, built by Brecht Sanders' --with-tune=generic --enable-checking=release --enable-threads=posix --disable-sjlj-exceptions --disable-libunwind-exceptions --disable-serial-configure --disable-bootstrap --enable-host-shared --enable-plugin --disable-default-ssp --disable-rpath --enable-libstdcxx-pch --enable-libstdcxx-time=yes --disable-libstdcxx-debug --disable-version-specific-runtime-libs --with-stabs --disable-symvers --enable-languages=c,c++,fortran,lto,objc,obj-c++,d,jit --disable-gold --disable-nls --disable-stage1-checking --disable-win32-registry --disable-multilib --enable-ld --enable-libquadmath --enable-libada --enable-libssp --enable-libstdcxx --enable-lto --enable-fully-dynamic-string --enable-libgomp --enable-graphite --enable-mingw-wildcard --with-mpc=/d/Prog/winlibs64_stage/custombuilt --with-mpfr=/d/Prog/winlibs64_stage/custombuilt --with-gmp=/d/Prog/winlibs64_stage/custombuilt --with-isl=/d/Prog/winlibs64_stage/custombuilt --enable-install-libiberty --enable-__cxa_atexit --without-included-gettext --with-diagnostics-color=auto --enable-clocale=generic --with-libiconv --with-system-zlib --with-build-sysroot=/R/winlibs64_stage/gcc-11.2.0/build_mingw/mingw-w64 CFLAGS=-I/d/Prog/winlibs64_stage/custombuilt/include/libdl-win32
Thread model: posix
Supported LTO compression algorithms: zlib zstd
gcc version 11.2.0 (MinGW-W64 x86_64-posix-seh, built by Brecht Sanders) 
COMPILER_PATH=c:/mingw64/bin/../libexec/gcc/x86_64-w64-mingw32/11.2.0/;c:/mingw64/bin/../libexec/gcc/;c:/mingw64/bin/../lib/gcc/x86_64-w64-mingw32/11.2.0/../../../../x86_64-w64-mingw32/bin/
LIBRARY_PATH=c:/mingw64/bin/../lib/gcc/x86_64-w64-mingw32/11.2.0/;c:/mingw64/bin/../lib/gcc/;c:/mingw64/bin/../lib/gcc/x86_64-w64-mingw32/11.2.0/../../../../x86_64-w64-mingw32/lib/../lib/;c:/mingw64/bin/../lib/gcc/x86_64-w64-mingw32/11.2.0/../../../../lib/;c:/mingw64/bin/../lib/gcc/x86_64-w64-mingw32/11.2.0/../../../../x86_64-w64-mingw32/lib/;c:/mingw64/bin/../lib/gcc/x86_64-w64-mingw32/11.2.0/../../../
COLLECT_GCC_OPTIONS='-v' '-o' 'cmTC_2e448.exe' '-mtune=generic' '-march=x86-64' '-dumpdir' 'cmTC_2e448.'
 c:/mingw64/bin/../libexec/gcc/x86_64-w64-mingw32/11.2.0/collect2.exe -plugin c:/mingw64/bin/../libexec/gcc/x86_64-w64-mingw32/11.2.0/liblto_plugin.dll -plugin-opt=c:/mingw64/bin/../libexec/gcc/x86_64-w64-mingw32/11.2.0/lto-wrapper.exe -plugin-opt=-fresolution=C:\Users\MoWin\AppData\Local\Temp\ccUnPB2d.res -plugin-opt=-pass-through=-lmingw32 -plugin-opt=-pass-through=-lgcc -plugin-opt=-pass-through=-lgcc_eh -plugin-opt=-pass-through=-lmoldname -plugin-opt=-pass-through=-lmingwex -plugin-opt=-pass-through=-lmsvcrt -plugin-opt=-pass-through=-lkernel32 -plugin-opt=-pass-through=-lpthread -plugin-opt=-pass-through=-ladvapi32 -plugin-opt=-pass-through=-lshell32 -plugin-opt=-pass-through=-luser32 -plugin-opt=-pass-through=-lkernel32 -plugin-opt=-pass-through=-lmingw32 -plugin-opt=-pass-through=-lgcc -plugin-opt=-pass-through=-lgcc_eh -plugin-opt=-pass-through=-lmoldname -plugin-opt=-pass-through=-lmingwex -plugin-opt=-pass-through=-lmsvcrt -plugin-opt=-pass-through=-lkernel32 -m i386pep -Bdynamic -o cmTC_2e448.exe c:/mingw64/bin/../lib/gcc/x86_64-w64-mingw32/11.2.0/../../../../x86_64-w64-mingw32/lib/../lib/crt2.o c:/mingw64/bin/../lib/gcc/x86_64-w64-mingw32/11.2.0/crtbegin.o -Lc:/mingw64/bin/../lib/gcc/x86_64-w64-mingw32/11.2.0 -Lc:/mingw64/bin/../lib/gcc -Lc:/mingw64/bin/../lib/gcc/x86_64-w64-mingw32/11.2.0/../../../../x86_64-w64-mingw32/lib/../lib -Lc:/mingw64/bin/../lib/gcc/x86_64-w64-mingw32/11.2.0/../../../../lib -Lc:/mingw64/bin/../lib/gcc/x86_64-w64-mingw32/11.2.0/../../../../x86_64-w64-mingw32/lib -Lc:/mingw64/bin/../lib/gcc/x86_64-w64-mingw32/11.2.0/../../.. --whole-archive CMakeFiles\cmTC_2e448.dir/objects.a --no-whole-archive --out-implib libcmTC_2e448.dll.a --major-image-version 0 --minor-image-version 0 -lmingw32 -lgcc -lgcc_eh -lmoldname -lmingwex -lmsvcrt -lkernel32 -lpthread -ladvapi32 -lshell32 -luser32 -lkernel32 -lmingw32 -lgcc -lgcc_eh -lmoldname -lmingwex -lmsvcrt -lkernel32 c:/mingw64/bin/../lib/gcc/x86_64-w64-mingw32/11.2.0/crtend.o
COLLECT_GCC_OPTIONS='-v' '-o' 'cmTC_2e448.exe' '-mtune=generic' '-march=x86-64' '-dumpdir' 'cmTC_2e448.'
mingw32-make[1]: Leaving directory 'F:/RnD/ai-rnd/OpenCV_CPP/cvSaveVideoToFile/build/CMakeFiles/CMakeTmp'



Parsed C implicit include dir info from above output: rv=done
  found start of include info
  found start of implicit include info
    add: [c:/mingw64/bin/../lib/gcc/x86_64-w64-mingw32/11.2.0/include]
    add: [c:/mingw64/bin/../lib/gcc/x86_64-w64-mingw32/11.2.0/../../../../include]
    add: [c:/mingw64/bin/../lib/gcc/x86_64-w64-mingw32/11.2.0/include-fixed]
    add: [c:/mingw64/bin/../lib/gcc/x86_64-w64-mingw32/11.2.0/../../../../x86_64-w64-mingw32/include]
  end of search list found
  collapse include dir [c:/mingw64/bin/../lib/gcc/x86_64-w64-mingw32/11.2.0/include] ==> [C:/mingw64/lib/gcc/x86_64-w64-mingw32/11.2.0/include]
  collapse include dir [c:/mingw64/bin/../lib/gcc/x86_64-w64-mingw32/11.2.0/../../../../include] ==> [C:/mingw64/include]
  collapse include dir [c:/mingw64/bin/../lib/gcc/x86_64-w64-mingw32/11.2.0/include-fixed] ==> [C:/mingw64/lib/gcc/x86_64-w64-mingw32/11.2.0/include-fixed]
  collapse include dir [c:/mingw64/bin/../lib/gcc/x86_64-w64-mingw32/11.2.0/../../../../x86_64-w64-mingw32/include] ==> [C:/mingw64/x86_64-w64-mingw32/include]
  implicit include dirs: [C:/mingw64/lib/gcc/x86_64-w64-mingw32/11.2.0/include;C:/mingw64/include;C:/mingw64/lib/gcc/x86_64-w64-mingw32/11.2.0/include-fixed;C:/mingw64/x86_64-w64-mingw32/include]


Parsed C implicit link information from above output:
  link line regex: [^( *|.*[/\])(ld\.exe|CMAKE_LINK_STARTFILE-NOTFOUND|([^/\]+-)?ld|collect2)[^/\]*( |$)]
  ignore line: [Change Dir: F:/RnD/ai-rnd/OpenCV_CPP/cvSaveVideoToFile/build/CMakeFiles/CMakeTmp]
  ignore line: []
  ignore line: [Run Build Command(s):C:/mingw64/bin/mingw32-make.exe -f Makefile cmTC_2e448/fast && C:/mingw64/bin/mingw32-make.exe  -f CMakeFiles\cmTC_2e448.dir\build.make CMakeFiles/cmTC_2e448.dir/build]
  ignore line: [mingw32-make[1]: Entering directory 'F:/RnD/ai-rnd/OpenCV_CPP/cvSaveVideoToFile/build/CMakeFiles/CMakeTmp']
  ignore line: [Building C object CMakeFiles/cmTC_2e448.dir/CMakeCCompilerABI.c.obj]
  ignore line: [C:\mingw64\bin\x86_64-w64-mingw32-gcc.exe   -v -o CMakeFiles\cmTC_2e448.dir\CMakeCCompilerABI.c.obj -c "C:\Program Files\CMake\share\cmake-3.21\Modules\CMakeCCompilerABI.c"]
  ignore line: [Using built-in specs.]
  ignore line: [COLLECT_GCC=C:\mingw64\bin\x86_64-w64-mingw32-gcc.exe]
  ignore line: [OFFLOAD_TARGET_NAMES=nvptx-none]
  ignore line: [Target: x86_64-w64-mingw32]
  ignore line: [Configured with: ../configure --prefix=/R/winlibs64_stage/inst_gcc-11.2.0/share/gcc --build=x86_64-w64-mingw32 --host=x86_64-w64-mingw32 --enable-offload-targets=nvptx-none --with-pkgversion='MinGW-W64 x86_64-posix-seh, built by Brecht Sanders' --with-tune=generic --enable-checking=release --enable-threads=posix --disable-sjlj-exceptions --disable-libunwind-exceptions --disable-serial-configure --disable-bootstrap --enable-host-shared --enable-plugin --disable-default-ssp --disable-rpath --enable-libstdcxx-pch --enable-libstdcxx-time=yes --disable-libstdcxx-debug --disable-version-specific-runtime-libs --with-stabs --disable-symvers --enable-languages=c,c++,fortran,lto,objc,obj-c++,d,jit --disable-gold --disable-nls --disable-stage1-checking --disable-win32-registry --disable-multilib --enable-ld --enable-libquadmath --enable-libada --enable-libssp --enable-libstdcxx --enable-lto --enable-fully-dynamic-string --enable-libgomp --enable-graphite --enable-mingw-wildcard --with-mpc=/d/Prog/winlibs64_stage/custombuilt --with-mpfr=/d/Prog/winlibs64_stage/custombuilt --with-gmp=/d/Prog/winlibs64_stage/custombuilt --with-isl=/d/Prog/winlibs64_stage/custombuilt --enable-install-libiberty --enable-__cxa_atexit --without-included-gettext --with-diagnostics-color=auto --enable-clocale=generic --with-libiconv --with-system-zlib --with-build-sysroot=/R/winlibs64_stage/gcc-11.2.0/build_mingw/mingw-w64 CFLAGS=-I/d/Prog/winlibs64_stage/custombuilt/include/libdl-win32]
  ignore line: [Thread model: posix]
  ignore line: [Supported LTO compression algorithms: zlib zstd]
  ignore line: [gcc version 11.2.0 (MinGW-W64 x86_64-posix-seh  built by Brecht Sanders) ]
  ignore line: [COLLECT_GCC_OPTIONS='-v' '-o' 'CMakeFiles\cmTC_2e448.dir\CMakeCCompilerABI.c.obj' '-c' '-mtune=generic' '-march=x86-64' '-dumpdir' 'CMakeFiles\cmTC_2e448.dir\']
  ignore line: [ c:/mingw64/bin/../libexec/gcc/x86_64-w64-mingw32/11.2.0/cc1.exe -quiet -v -iprefix c:\mingw64\bin\../lib/gcc/x86_64-w64-mingw32/11.2.0/ -D_REENTRANT C:\Program Files\CMake\share\cmake-3.21\Modules\CMakeCCompilerABI.c -quiet -dumpdir CMakeFiles\cmTC_2e448.dir\ -dumpbase CMakeCCompilerABI.c.c -dumpbase-ext .c -mtune=generic -march=x86-64 -version -o C:\Users\MoWin\AppData\Local\Temp\cccFjNT8.s]
  ignore line: [GNU C17 (MinGW-W64 x86_64-posix-seh  built by Brecht Sanders) version 11.2.0 (x86_64-w64-mingw32)]
  ignore line: [	compiled by GNU C version 11.2.0  GMP version 6.2.1  MPFR version 4.1.0  MPC version 1.2.1  isl version isl-0.24-GMP]
  ignore line: []
  ignore line: [GGC heuristics: --param ggc-min-expand=100 --param ggc-min-heapsize=131072]
  ignore line: [ignoring duplicate directory "c:/mingw64/lib/gcc/../../lib/gcc/x86_64-w64-mingw32/11.2.0/include"]
  ignore line: [ignoring nonexistent directory "R:/winlibs64_stage/inst_gcc-11.2.0/share/gcc/include"]
  ignore line: [ignoring nonexistent directory "/R/winlibs64_stage/inst_gcc-11.2.0/share/gcc/include"]
  ignore line: [ignoring duplicate directory "c:/mingw64/lib/gcc/../../lib/gcc/x86_64-w64-mingw32/11.2.0/include-fixed"]
  ignore line: [ignoring duplicate directory "c:/mingw64/lib/gcc/../../lib/gcc/x86_64-w64-mingw32/11.2.0/../../../../x86_64-w64-mingw32/include"]
  ignore line: [ignoring nonexistent directory "/mingw/include"]
  ignore line: [#include "..." search starts here:]
  ignore line: [#include <...> search starts here:]
  ignore line: [ c:\mingw64\bin\../lib/gcc/x86_64-w64-mingw32/11.2.0/include]
  ignore line: [ c:\mingw64\bin\../lib/gcc/x86_64-w64-mingw32/11.2.0/../../../../include]
  ignore line: [ c:\mingw64\bin\../lib/gcc/x86_64-w64-mingw32/11.2.0/include-fixed]
  ignore line: [ c:\mingw64\bin\../lib/gcc/x86_64-w64-mingw32/11.2.0/../../../../x86_64-w64-mingw32/include]
  ignore line: [End of search list.]
  ignore line: [GNU C17 (MinGW-W64 x86_64-posix-seh  built by Brecht Sanders) version 11.2.0 (x86_64-w64-mingw32)]
  ignore line: [	compiled by GNU C version 11.2.0  GMP version 6.2.1  MPFR version 4.1.0  MPC version 1.2.1  isl version isl-0.24-GMP]
  ignore line: []
  ignore line: [GGC heuristics: --param ggc-min-expand=100 --param ggc-min-heapsize=131072]
  ignore line: [Compiler executable checksum: 459e52f402ceae733f4c0f9feceac03d]
  ignore line: [COLLECT_GCC_OPTIONS='-v' '-o' 'CMakeFiles\cmTC_2e448.dir\CMakeCCompilerABI.c.obj' '-c' '-mtune=generic' '-march=x86-64' '-dumpdir' 'CMakeFiles\cmTC_2e448.dir\']
  ignore line: [ c:/mingw64/bin/../lib/gcc/x86_64-w64-mingw32/11.2.0/../../../../x86_64-w64-mingw32/bin/as.exe -v -o CMakeFiles\cmTC_2e448.dir\CMakeCCompilerABI.c.obj C:\Users\MoWin\AppData\Local\Temp\cccFjNT8.s]
  ignore line: [GNU assembler version 2.37 (x86_64-w64-mingw32) using BFD version (Binutils for MinGW-W64 x86_64  built by Brecht Sanders) 2.37]
  ignore line: [COMPILER_PATH=c:/mingw64/bin/../libexec/gcc/x86_64-w64-mingw32/11.2.0/]
  ignore line: [c:/mingw64/bin/../libexec/gcc/]
  ignore line: [c:/mingw64/bin/../lib/gcc/x86_64-w64-mingw32/11.2.0/../../../../x86_64-w64-mingw32/bin/]
  ignore line: [LIBRARY_PATH=c:/mingw64/bin/../lib/gcc/x86_64-w64-mingw32/11.2.0/]
  ignore line: [c:/mingw64/bin/../lib/gcc/]
  ignore line: [c:/mingw64/bin/../lib/gcc/x86_64-w64-mingw32/11.2.0/../../../../x86_64-w64-mingw32/lib/../lib/]
  ignore line: [c:/mingw64/bin/../lib/gcc/x86_64-w64-mingw32/11.2.0/../../../../lib/]
  ignore line: [c:/mingw64/bin/../lib/gcc/x86_64-w64-mingw32/11.2.0/../../../../x86_64-w64-mingw32/lib/]
  ignore line: [c:/mingw64/bin/../lib/gcc/x86_64-w64-mingw32/11.2.0/../../../]
  ignore line: [COLLECT_GCC_OPTIONS='-v' '-o' 'CMakeFiles\cmTC_2e448.dir\CMakeCCompilerABI.c.obj' '-c' '-mtune=generic' '-march=x86-64' '-dumpdir' 'CMakeFiles\cmTC_2e448.dir\CMakeCCompilerABI.c.']
  ignore line: [Linking C executable cmTC_2e448.exe]
  ignore line: ["C:\Program Files\CMake\bin\cmake.exe" -E cmake_link_script CMakeFiles\cmTC_2e448.dir\link.txt --verbose=1]
  ignore line: ["C:\Program Files\CMake\bin\cmake.exe" -E rm -f CMakeFiles\cmTC_2e448.dir/objects.a]
  ignore line: [C:\mingw64\bin\ar.exe qc CMakeFiles\cmTC_2e448.dir/objects.a @CMakeFiles\cmTC_2e448.dir\objects1.rsp]
  ignore line: [C:\mingw64\bin\x86_64-w64-mingw32-gcc.exe  -v -Wl --whole-archive CMakeFiles\cmTC_2e448.dir/objects.a -Wl --no-whole-archive -o cmTC_2e448.exe -Wl --out-implib libcmTC_2e448.dll.a -Wl --major-image-version 0 --minor-image-version 0 ]
  ignore line: [Using built-in specs.]
  ignore line: [COLLECT_GCC=C:\mingw64\bin\x86_64-w64-mingw32-gcc.exe]
  ignore line: [COLLECT_LTO_WRAPPER=c:/mingw64/bin/../libexec/gcc/x86_64-w64-mingw32/11.2.0/lto-wrapper.exe]
  ignore line: [OFFLOAD_TARGET_NAMES=nvptx-none]
  ignore line: [Target: x86_64-w64-mingw32]
  ignore line: [Configured with: ../configure --prefix=/R/winlibs64_stage/inst_gcc-11.2.0/share/gcc --build=x86_64-w64-mingw32 --host=x86_64-w64-mingw32 --enable-offload-targets=nvptx-none --with-pkgversion='MinGW-W64 x86_64-posix-seh, built by Brecht Sanders' --with-tune=generic --enable-checking=release --enable-threads=posix --disable-sjlj-exceptions --disable-libunwind-exceptions --disable-serial-configure --disable-bootstrap --enable-host-shared --enable-plugin --disable-default-ssp --disable-rpath --enable-libstdcxx-pch --enable-libstdcxx-time=yes --disable-libstdcxx-debug --disable-version-specific-runtime-libs --with-stabs --disable-symvers --enable-languages=c,c++,fortran,lto,objc,obj-c++,d,jit --disable-gold --disable-nls --disable-stage1-checking --disable-win32-registry --disable-multilib --enable-ld --enable-libquadmath --enable-libada --enable-libssp --enable-libstdcxx --enable-lto --enable-fully-dynamic-string --enable-libgomp --enable-graphite --enable-mingw-wildcard --with-mpc=/d/Prog/winlibs64_stage/custombuilt --with-mpfr=/d/Prog/winlibs64_stage/custombuilt --with-gmp=/d/Prog/winlibs64_stage/custombuilt --with-isl=/d/Prog/winlibs64_stage/custombuilt --enable-install-libiberty --enable-__cxa_atexit --without-included-gettext --with-diagnostics-color=auto --enable-clocale=generic --with-libiconv --with-system-zlib --with-build-sysroot=/R/winlibs64_stage/gcc-11.2.0/build_mingw/mingw-w64 CFLAGS=-I/d/Prog/winlibs64_stage/custombuilt/include/libdl-win32]
  ignore line: [Thread model: posix]
  ignore line: [Supported LTO compression algorithms: zlib zstd]
  ignore line: [gcc version 11.2.0 (MinGW-W64 x86_64-posix-seh  built by Brecht Sanders) ]
  ignore line: [COMPILER_PATH=c:/mingw64/bin/../libexec/gcc/x86_64-w64-mingw32/11.2.0/]
  ignore line: [c:/mingw64/bin/../libexec/gcc/]
  ignore line: [c:/mingw64/bin/../lib/gcc/x86_64-w64-mingw32/11.2.0/../../../../x86_64-w64-mingw32/bin/]
  ignore line: [LIBRARY_PATH=c:/mingw64/bin/../lib/gcc/x86_64-w64-mingw32/11.2.0/]
  ignore line: [c:/mingw64/bin/../lib/gcc/]
  ignore line: [c:/mingw64/bin/../lib/gcc/x86_64-w64-mingw32/11.2.0/../../../../x86_64-w64-mingw32/lib/../lib/]
  ignore line: [c:/mingw64/bin/../lib/gcc/x86_64-w64-mingw32/11.2.0/../../../../lib/]
  ignore line: [c:/mingw64/bin/../lib/gcc/x86_64-w64-mingw32/11.2.0/../../../../x86_64-w64-mingw32/lib/]
  ignore line: [c:/mingw64/bin/../lib/gcc/x86_64-w64-mingw32/11.2.0/../../../]
  ignore line: [COLLECT_GCC_OPTIONS='-v' '-o' 'cmTC_2e448.exe' '-mtune=generic' '-march=x86-64' '-dumpdir' 'cmTC_2e448.']
  link line: [ c:/mingw64/bin/../libexec/gcc/x86_64-w64-mingw32/11.2.0/collect2.exe -plugin c:/mingw64/bin/../libexec/gcc/x86_64-w64-mingw32/11.2.0/liblto_plugin.dll -plugin-opt=c:/mingw64/bin/../libexec/gcc/x86_64-w64-mingw32/11.2.0/lto-wrapper.exe -plugin-opt=-fresolution=C:\Users\MoWin\AppData\Local\Temp\ccUnPB2d.res -plugin-opt=-pass-through=-lmingw32 -plugin-opt=-pass-through=-lgcc -plugin-opt=-pass-through=-lgcc_eh -plugin-opt=-pass-through=-lmoldname -plugin-opt=-pass-through=-lmingwex -plugin-opt=-pass-through=-lmsvcrt -plugin-opt=-pass-through=-lkernel32 -plugin-opt=-pass-through=-lpthread -plugin-opt=-pass-through=-ladvapi32 -plugin-opt=-pass-through=-lshell32 -plugin-opt=-pass-through=-luser32 -plugin-opt=-pass-through=-lkernel32 -plugin-opt=-pass-through=-lmingw32 -plugin-opt=-pass-through=-lgcc -plugin-opt=-pass-through=-lgcc_eh -plugin-opt=-pass-through=-lmoldname -plugin-opt=-pass-through=-lmingwex -plugin-opt=-pass-through=-lmsvcrt -plugin-opt=-pass-through=-lkernel32 -m i386pep -Bdynamic -o cmTC_2e448.exe c:/mingw64/bin/../lib/gcc/x86_64-w64-mingw32/11.2.0/../../../../x86_64-w64-mingw32/lib/../lib/crt2.o c:/mingw64/bin/../lib/gcc/x86_64-w64-mingw32/11.2.0/crtbegin.o -Lc:/mingw64/bin/../lib/gcc/x86_64-w64-mingw32/11.2.0 -Lc:/mingw64/bin/../lib/gcc -Lc:/mingw64/bin/../lib/gcc/x86_64-w64-mingw32/11.2.0/../../../../x86_64-w64-mingw32/lib/../lib -Lc:/mingw64/bin/../lib/gcc/x86_64-w64-mingw32/11.2.0/../../../../lib -Lc:/mingw64/bin/../lib/gcc/x86_64-w64-mingw32/11.2.0/../../../../x86_64-w64-mingw32/lib -Lc:/mingw64/bin/../lib/gcc/x86_64-w64-mingw32/11.2.0/../../.. --whole-archive CMakeFiles\cmTC_2e448.dir/objects.a --no-whole-archive --out-implib libcmTC_2e448.dll.a --major-image-version 0 --minor-image-version 0 -lmingw32 -lgcc -lgcc_eh -lmoldname -lmingwex -lmsvcrt -lkernel32 -lpthread -ladvapi32 -lshell32 -luser32 -lkernel32 -lmingw32 -lgcc -lgcc_eh -lmoldname -lmingwex -lmsvcrt -lkernel32 c:/mingw64/bin/../lib/gcc/x86_64-w64-mingw32/11.2.0/crtend.o]
    arg [c:/mingw64/bin/../libexec/gcc/x86_64-w64-mingw32/11.2.0/collect2.exe] ==> ignore
    arg [-plugin] ==> ignore
    arg [c:/mingw64/bin/../libexec/gcc/x86_64-w64-mingw32/11.2.0/liblto_plugin.dll] ==> ignore
    arg [-plugin-opt=c:/mingw64/bin/../libexec/gcc/x86_64-w64-mingw32/11.2.0/lto-wrapper.exe] ==> ignore
    arg [-plugin-opt=-fresolution=C:\Users\MoWin\AppData\Local\Temp\ccUnPB2d.res] ==> ignore
    arg [-plugin-opt=-pass-through=-lmingw32] ==> ignore
    arg [-plugin-opt=-pass-through=-lgcc] ==> ignore
    arg [-plugin-opt=-pass-through=-lgcc_eh] ==> ignore
    arg [-plugin-opt=-pass-through=-lmoldname] ==> ignore
    arg [-plugin-opt=-pass-through=-lmingwex] ==> ignore
    arg [-plugin-opt=-pass-through=-lmsvcrt] ==> ignore
    arg [-plugin-opt=-pass-through=-lkernel32] ==> ignore
    arg [-plugin-opt=-pass-through=-lpthread] ==> ignore
    arg [-plugin-opt=-pass-through=-ladvapi32] ==> ignore
    arg [-plugin-opt=-pass-through=-lshell32] ==> ignore
    arg [-plugin-opt=-pass-through=-luser32] ==> ignore
    arg [-plugin-opt=-pass-through=-lkernel32] ==> ignore
    arg [-plugin-opt=-pass-through=-lmingw32] ==> ignore
    arg [-plugin-opt=-pass-through=-lgcc] ==> ignore
    arg [-plugin-opt=-pass-through=-lgcc_eh] ==> ignore
    arg [-plugin-opt=-pass-through=-lmoldname] ==> ignore
    arg [-plugin-opt=-pass-through=-lmingwex] ==> ignore
    arg [-plugin-opt=-pass-through=-lmsvcrt] ==> ignore
    arg [-plugin-opt=-pass-through=-lkernel32] ==> ignore
    arg [-m] ==> ignore
    arg [i386pep] ==> ignore
    arg [-Bdynamic] ==> search dynamic
    arg [-o] ==> ignore
    arg [cmTC_2e448.exe] ==> ignore
    arg [c:/mingw64/bin/../lib/gcc/x86_64-w64-mingw32/11.2.0/../../../../x86_64-w64-mingw32/lib/../lib/crt2.o] ==> obj [c:/mingw64/bin/../lib/gcc/x86_64-w64-mingw32/11.2.0/../../../../x86_64-w64-mingw32/lib/../lib/crt2.o]
    arg [c:/mingw64/bin/../lib/gcc/x86_64-w64-mingw32/11.2.0/crtbegin.o] ==> obj [c:/mingw64/bin/../lib/gcc/x86_64-w64-mingw32/11.2.0/crtbegin.o]
    arg [-Lc:/mingw64/bin/../lib/gcc/x86_64-w64-mingw32/11.2.0] ==> dir [c:/mingw64/bin/../lib/gcc/x86_64-w64-mingw32/11.2.0]
    arg [-Lc:/mingw64/bin/../lib/gcc] ==> dir [c:/mingw64/bin/../lib/gcc]
    arg [-Lc:/mingw64/bin/../lib/gcc/x86_64-w64-mingw32/11.2.0/../../../../x86_64-w64-mingw32/lib/../lib] ==> dir [c:/mingw64/bin/../lib/gcc/x86_64-w64-mingw32/11.2.0/../../../../x86_64-w64-mingw32/lib/../lib]
    arg [-Lc:/mingw64/bin/../lib/gcc/x86_64-w64-mingw32/11.2.0/../../../../lib] ==> dir [c:/mingw64/bin/../lib/gcc/x86_64-w64-mingw32/11.2.0/../../../../lib]
    arg [-Lc:/mingw64/bin/../lib/gcc/x86_64-w64-mingw32/11.2.0/../../../../x86_64-w64-mingw32/lib] ==> dir [c:/mingw64/bin/../lib/gcc/x86_64-w64-mingw32/11.2.0/../../../../x86_64-w64-mingw32/lib]
    arg [-Lc:/mingw64/bin/../lib/gcc/x86_64-w64-mingw32/11.2.0/../../..] ==> dir [c:/mingw64/bin/../lib/gcc/x86_64-w64-mingw32/11.2.0/../../..]
    arg [--whole-archive] ==> ignore
    arg [CMakeFiles\cmTC_2e448.dir/objects.a] ==> ignore
    arg [--no-whole-archive] ==> ignore
    arg [--out-implib] ==> ignore
    arg [libcmTC_2e448.dll.a] ==> ignore
    arg [--major-image-version] ==> ignore
    arg [0] ==> ignore
    arg [--minor-image-version] ==> ignore
    arg [0] ==> ignore
    arg [-lmingw32] ==> lib [mingw32]
    arg [-lgcc] ==> lib [gcc]
    arg [-lgcc_eh] ==> lib [gcc_eh]
    arg [-lmoldname] ==> lib [moldname]
    arg [-lmingwex] ==> lib [mingwex]
    arg [-lmsvcrt] ==> lib [msvcrt]
    arg [-lkernel32] ==> lib [kernel32]
    arg [-lpthread] ==> lib [pthread]
    arg [-ladvapi32] ==> lib [advapi32]
    arg [-lshell32] ==> lib [shell32]
    arg [-luser32] ==> lib [user32]
    arg [-lkernel32] ==> lib [kernel32]
    arg [-lmingw32] ==> lib [mingw32]
    arg [-lgcc] ==> lib [gcc]
    arg [-lgcc_eh] ==> lib [gcc_eh]
    arg [-lmoldname] ==> lib [moldname]
    arg [-lmingwex] ==> lib [mingwex]
    arg [-lmsvcrt] ==> lib [msvcrt]
    arg [-lkernel32] ==> lib [kernel32]
    arg [c:/mingw64/bin/../lib/gcc/x86_64-w64-mingw32/11.2.0/crtend.o] ==> obj [c:/mingw64/bin/../lib/gcc/x86_64-w64-mingw32/11.2.0/crtend.o]
  remove lib [gcc_eh]
  remove lib [msvcrt]
  remove lib [gcc_eh]
  remove lib [msvcrt]
  collapse obj [c:/mingw64/bin/../lib/gcc/x86_64-w64-mingw32/11.2.0/../../../../x86_64-w64-mingw32/lib/../lib/crt2.o] ==> [C:/mingw64/x86_64-w64-mingw32/lib/crt2.o]
  collapse obj [c:/mingw64/bin/../lib/gcc/x86_64-w64-mingw32/11.2.0/crtbegin.o] ==> [C:/mingw64/lib/gcc/x86_64-w64-mingw32/11.2.0/crtbegin.o]
  collapse obj [c:/mingw64/bin/../lib/gcc/x86_64-w64-mingw32/11.2.0/crtend.o] ==> [C:/mingw64/lib/gcc/x86_64-w64-mingw32/11.2.0/crtend.o]
  collapse library dir [c:/mingw64/bin/../lib/gcc/x86_64-w64-mingw32/11.2.0] ==> [C:/mingw64/lib/gcc/x86_64-w64-mingw32/11.2.0]
  collapse library dir [c:/mingw64/bin/../lib/gcc] ==> [C:/mingw64/lib/gcc]
  collapse library dir [c:/mingw64/bin/../lib/gcc/x86_64-w64-mingw32/11.2.0/../../../../x86_64-w64-mingw32/lib/../lib] ==> [C:/mingw64/x86_64-w64-mingw32/lib]
  collapse library dir [c:/mingw64/bin/../lib/gcc/x86_64-w64-mingw32/11.2.0/../../../../lib] ==> [C:/mingw64/lib]
  collapse library dir [c:/mingw64/bin/../lib/gcc/x86_64-w64-mingw32/11.2.0/../../../../x86_64-w64-mingw32/lib] ==> [C:/mingw64/x86_64-w64-mingw32/lib]
  collapse library dir [c:/mingw64/bin/../lib/gcc/x86_64-w64-mingw32/11.2.0/../../..] ==> [C:/mingw64/lib]
  implicit libs: [mingw32;gcc;moldname;mingwex;kernel32;pthread;advapi32;shell32;user32;kernel32;mingw32;gcc;moldname;mingwex;kernel32]
  implicit objs: [C:/mingw64/x86_64-w64-mingw32/lib/crt2.o;C:/mingw64/lib/gcc/x86_64-w64-mingw32/11.2.0/crtbegin.o;C:/mingw64/lib/gcc/x86_64-w64-mingw32/11.2.0/crtend.o]
  implicit dirs: [C:/mingw64/lib/gcc/x86_64-w64-mingw32/11.2.0;C:/mingw64/lib/gcc;C:/mingw64/x86_64-w64-mingw32/lib;C:/mingw64/lib]
  implicit fwks: []


Detecting CXX compiler ABI info compiled with the following output:
Change Dir: F:/RnD/ai-rnd/OpenCV_CPP/cvSaveVideoToFile/build/CMakeFiles/CMakeTmp

Run Build Command(s):C:/mingw64/bin/mingw32-make.exe -f Makefile cmTC_92d91/fast && C:/mingw64/bin/mingw32-make.exe  -f CMakeFiles\cmTC_92d91.dir\build.make CMakeFiles/cmTC_92d91.dir/build
mingw32-make[1]: Entering directory 'F:/RnD/ai-rnd/OpenCV_CPP/cvSaveVideoToFile/build/CMakeFiles/CMakeTmp'
Building CXX object CMakeFiles/cmTC_92d91.dir/CMakeCXXCompilerABI.cpp.obj
C:\mingw64\bin\x86_64-w64-mingw32-g++.exe   -v -o CMakeFiles\cmTC_92d91.dir\CMakeCXXCompilerABI.cpp.obj -c "C:\Program Files\CMake\share\cmake-3.21\Modules\CMakeCXXCompilerABI.cpp"
Using built-in specs.
COLLECT_GCC=C:\mingw64\bin\x86_64-w64-mingw32-g++.exe
OFFLOAD_TARGET_NAMES=nvptx-none
Target: x86_64-w64-mingw32
Configured with: ../configure --prefix=/R/winlibs64_stage/inst_gcc-11.2.0/share/gcc --build=x86_64-w64-mingw32 --host=x86_64-w64-mingw32 --enable-offload-targets=nvptx-none --with-pkgversion='MinGW-W64 x86_64-posix-seh, built by Brecht Sanders' --with-tune=generic --enable-checking=release --enable-threads=posix --disable-sjlj-exceptions --disable-libunwind-exceptions --disable-serial-configure --disable-bootstrap --enable-host-shared --enable-plugin --disable-default-ssp --disable-rpath --enable-libstdcxx-pch --enable-libstdcxx-time=yes --disable-libstdcxx-debug --disable-version-specific-runtime-libs --with-stabs --disable-symvers --enable-languages=c,c++,fortran,lto,objc,obj-c++,d,jit --disable-gold --disable-nls --disable-stage1-checking --disable-win32-registry --disable-multilib --enable-ld --enable-libquadmath --enable-libada --enable-libssp --enable-libstdcxx --enable-lto --enable-fully-dynamic-string --enable-libgomp --enable-graphite --enable-mingw-wildcard --with-mpc=/d/Prog/winlibs64_stage/custombuilt --with-mpfr=/d/Prog/winlibs64_stage/custombuilt --with-gmp=/d/Prog/winlibs64_stage/custombuilt --with-isl=/d/Prog/winlibs64_stage/custombuilt --enable-install-libiberty --enable-__cxa_atexit --without-included-gettext --with-diagnostics-color=auto --enable-clocale=generic --with-libiconv --with-system-zlib --with-build-sysroot=/R/winlibs64_stage/gcc-11.2.0/build_mingw/mingw-w64 CFLAGS=-I/d/Prog/winlibs64_stage/custombuilt/include/libdl-win32
Thread model: posix
Supported LTO compression algorithms: zlib zstd
gcc version 11.2.0 (MinGW-W64 x86_64-posix-seh, built by Brecht Sanders) 
COLLECT_GCC_OPTIONS='-v' '-o' 'CMakeFiles\cmTC_92d91.dir\CMakeCXXCompilerABI.cpp.obj' '-c' '-shared-libgcc' '-mtune=generic' '-march=x86-64' '-dumpdir' 'CMakeFiles\cmTC_92d91.dir\'
 c:/mingw64/bin/../libexec/gcc/x86_64-w64-mingw32/11.2.0/cc1plus.exe -quiet -v -iprefix c:\mingw64\bin\../lib/gcc/x86_64-w64-mingw32/11.2.0/ -D_REENTRANT C:\Program Files\CMake\share\cmake-3.21\Modules\CMakeCXXCompilerABI.cpp -quiet -dumpdir CMakeFiles\cmTC_92d91.dir\ -dumpbase CMakeCXXCompilerABI.cpp.cpp -dumpbase-ext .cpp -mtune=generic -march=x86-64 -version -o C:\Users\MoWin\AppData\Local\Temp\ccXWSi9t.s
GNU C++17 (MinGW-W64 x86_64-posix-seh, built by Brecht Sanders) version 11.2.0 (x86_64-w64-mingw32)
	compiled by GNU C version 11.2.0, GMP version 6.2.1, MPFR version 4.1.0, MPC version 1.2.1, isl version isl-0.24-GMP

GGC heuristics: --param ggc-min-expand=100 --param ggc-min-heapsize=131072
ignoring duplicate directory "c:/mingw64/lib/gcc/../../lib/gcc/x86_64-w64-mingw32/11.2.0/../../../../include/c++/11.2.0"
ignoring duplicate directory "c:/mingw64/lib/gcc/../../lib/gcc/x86_64-w64-mingw32/11.2.0/../../../../include/c++/11.2.0/x86_64-w64-mingw32"
ignoring duplicate directory "c:/mingw64/lib/gcc/../../lib/gcc/x86_64-w64-mingw32/11.2.0/../../../../include/c++/11.2.0/backward"
ignoring duplicate directory "c:/mingw64/lib/gcc/../../lib/gcc/x86_64-w64-mingw32/11.2.0/include"
ignoring nonexistent directory "R:/winlibs64_stage/inst_gcc-11.2.0/share/gcc/include"
ignoring nonexistent directory "/R/winlibs64_stage/inst_gcc-11.2.0/share/gcc/include"
ignoring duplicate directory "c:/mingw64/lib/gcc/../../lib/gcc/x86_64-w64-mingw32/11.2.0/include-fixed"
ignoring duplicate directory "c:/mingw64/lib/gcc/../../lib/gcc/x86_64-w64-mingw32/11.2.0/../../../../x86_64-w64-mingw32/include"
ignoring nonexistent directory "/mingw/include"
#include "..." search starts here:
#include <...> search starts here:
 c:\mingw64\bin\../lib/gcc/x86_64-w64-mingw32/11.2.0/../../../../include/c++/11.2.0
 c:\mingw64\bin\../lib/gcc/x86_64-w64-mingw32/11.2.0/../../../../include/c++/11.2.0/x86_64-w64-mingw32
 c:\mingw64\bin\../lib/gcc/x86_64-w64-mingw32/11.2.0/../../../../include/c++/11.2.0/backward
 c:\mingw64\bin\../lib/gcc/x86_64-w64-mingw32/11.2.0/include
 c:\mingw64\bin\../lib/gcc/x86_64-w64-mingw32/11.2.0/../../../../include
 c:\mingw64\bin\../lib/gcc/x86_64-w64-mingw32/11.2.0/include-fixed
 c:\mingw64\bin\../lib/gcc/x86_64-w64-mingw32/11.2.0/../../../../x86_64-w64-mingw32/include
End of search list.
GNU C++17 (MinGW-W64 x86_64-posix-seh, built by Brecht Sanders) version 11.2.0 (x86_64-w64-mingw32)
	compiled by GNU C version 11.2.0, GMP version 6.2.1, MPFR version 4.1.0, MPC version 1.2.1, isl version isl-0.24-GMP

GGC heuristics: --param ggc-min-expand=100 --param ggc-min-heapsize=131072
Compiler executable checksum: 9a0bfe9cfea87d8027f88315aa7eb176
COLLECT_GCC_OPTIONS='-v' '-o' 'CMakeFiles\cmTC_92d91.dir\CMakeCXXCompilerABI.cpp.obj' '-c' '-shared-libgcc' '-mtune=generic' '-march=x86-64' '-dumpdir' 'CMakeFiles\cmTC_92d91.dir\'
 c:/mingw64/bin/../lib/gcc/x86_64-w64-mingw32/11.2.0/../../../../x86_64-w64-mingw32/bin/as.exe -v -o CMakeFiles\cmTC_92d91.dir\CMakeCXXCompilerABI.cpp.obj C:\Users\MoWin\AppData\Local\Temp\ccXWSi9t.s
GNU assembler version 2.37 (x86_64-w64-mingw32) using BFD version (Binutils for MinGW-W64 x86_64, built by Brecht Sanders) 2.37
COMPILER_PATH=c:/mingw64/bin/../libexec/gcc/x86_64-w64-mingw32/11.2.0/;c:/mingw64/bin/../libexec/gcc/;c:/mingw64/bin/../lib/gcc/x86_64-w64-mingw32/11.2.0/../../../../x86_64-w64-mingw32/bin/
LIBRARY_PATH=c:/mingw64/bin/../lib/gcc/x86_64-w64-mingw32/11.2.0/;c:/mingw64/bin/../lib/gcc/;c:/mingw64/bin/../lib/gcc/x86_64-w64-mingw32/11.2.0/../../../../x86_64-w64-mingw32/lib/../lib/;c:/mingw64/bin/../lib/gcc/x86_64-w64-mingw32/11.2.0/../../../../lib/;c:/mingw64/bin/../lib/gcc/x86_64-w64-mingw32/11.2.0/../../../../x86_64-w64-mingw32/lib/;c:/mingw64/bin/../lib/gcc/x86_64-w64-mingw32/11.2.0/../../../
COLLECT_GCC_OPTIONS='-v' '-o' 'CMakeFiles\cmTC_92d91.dir\CMakeCXXCompilerABI.cpp.obj' '-c' '-shared-libgcc' '-mtune=generic' '-march=x86-64' '-dumpdir' 'CMakeFiles\cmTC_92d91.dir\CMakeCXXCompilerABI.cpp.'
Linking CXX executable cmTC_92d91.exe
"C:\Program Files\CMake\bin\cmake.exe" -E cmake_link_script CMakeFiles\cmTC_92d91.dir\link.txt --verbose=1
"C:\Program Files\CMake\bin\cmake.exe" -E rm -f CMakeFiles\cmTC_92d91.dir/objects.a
C:\mingw64\bin\ar.exe qc CMakeFiles\cmTC_92d91.dir/objects.a @CMakeFiles\cmTC_92d91.dir\objects1.rsp
C:\mingw64\bin\x86_64-w64-mingw32-g++.exe  -v -Wl,--whole-archive CMakeFiles\cmTC_92d91.dir/objects.a -Wl,--no-whole-archive -o cmTC_92d91.exe -Wl,--out-implib,libcmTC_92d91.dll.a -Wl,--major-image-version,0,--minor-image-version,0 
Using built-in specs.
COLLECT_GCC=C:\mingw64\bin\x86_64-w64-mingw32-g++.exe
COLLECT_LTO_WRAPPER=c:/mingw64/bin/../libexec/gcc/x86_64-w64-mingw32/11.2.0/lto-wrapper.exe
OFFLOAD_TARGET_NAMES=nvptx-none
Target: x86_64-w64-mingw32
Configured with: ../configure --prefix=/R/winlibs64_stage/inst_gcc-11.2.0/share/gcc --build=x86_64-w64-mingw32 --host=x86_64-w64-mingw32 --enable-offload-targets=nvptx-none --with-pkgversion='MinGW-W64 x86_64-posix-seh, built by Brecht Sanders' --with-tune=generic --enable-checking=release --enable-threads=posix --disable-sjlj-exceptions --disable-libunwind-exceptions --disable-serial-configure --disable-bootstrap --enable-host-shared --enable-plugin --disable-default-ssp --disable-rpath --enable-libstdcxx-pch --enable-libstdcxx-time=yes --disable-libstdcxx-debug --disable-version-specific-runtime-libs --with-stabs --disable-symvers --enable-languages=c,c++,fortran,lto,objc,obj-c++,d,jit --disable-gold --disable-nls --disable-stage1-checking --disable-win32-registry --disable-multilib --enable-ld --enable-libquadmath --enable-libada --enable-libssp --enable-libstdcxx --enable-lto --enable-fully-dynamic-string --enable-libgomp --enable-graphite --enable-mingw-wildcard --with-mpc=/d/Prog/winlibs64_stage/custombuilt --with-mpfr=/d/Prog/winlibs64_stage/custombuilt --with-gmp=/d/Prog/winlibs64_stage/custombuilt --with-isl=/d/Prog/winlibs64_stage/custombuilt --enable-install-libiberty --enable-__cxa_atexit --without-included-gettext --with-diagnostics-color=auto --enable-clocale=generic --with-libiconv --with-system-zlib --with-build-sysroot=/R/winlibs64_stage/gcc-11.2.0/build_mingw/mingw-w64 CFLAGS=-I/d/Prog/winlibs64_stage/custombuilt/include/libdl-win32
Thread model: posix
Supported LTO compression algorithms: zlib zstd
gcc version 11.2.0 (MinGW-W64 x86_64-posix-seh, built by Brecht Sanders) 
COMPILER_PATH=c:/mingw64/bin/../libexec/gcc/x86_64-w64-mingw32/11.2.0/;c:/mingw64/bin/../libexec/gcc/;c:/mingw64/bin/../lib/gcc/x86_64-w64-mingw32/11.2.0/../../../../x86_64-w64-mingw32/bin/
LIBRARY_PATH=c:/mingw64/bin/../lib/gcc/x86_64-w64-mingw32/11.2.0/;c:/mingw64/bin/../lib/gcc/;c:/mingw64/bin/../lib/gcc/x86_64-w64-mingw32/11.2.0/../../../../x86_64-w64-mingw32/lib/../lib/;c:/mingw64/bin/../lib/gcc/x86_64-w64-mingw32/11.2.0/../../../../lib/;c:/mingw64/bin/../lib/gcc/x86_64-w64-mingw32/11.2.0/../../../../x86_64-w64-mingw32/lib/;c:/mingw64/bin/../lib/gcc/x86_64-w64-mingw32/11.2.0/../../../
COLLECT_GCC_OPTIONS='-v' '-o' 'cmTC_92d91.exe' '-shared-libgcc' '-mtune=generic' '-march=x86-64' '-dumpdir' 'cmTC_92d91.'
 c:/mingw64/bin/../libexec/gcc/x86_64-w64-mingw32/11.2.0/collect2.exe -plugin c:/mingw64/bin/../libexec/gcc/x86_64-w64-mingw32/11.2.0/liblto_plugin.dll -plugin-opt=c:/mingw64/bin/../libexec/gcc/x86_64-w64-mingw32/11.2.0/lto-wrapper.exe -plugin-opt=-fresolution=C:\Users\MoWin\AppData\Local\Temp\ccTiGGyI.res -plugin-opt=-pass-through=-lmingw32 -plugin-opt=-pass-through=-lgcc_s -plugin-opt=-pass-through=-lgcc -plugin-opt=-pass-through=-lmoldname -plugin-opt=-pass-through=-lmingwex -plugin-opt=-pass-through=-lmsvcrt -plugin-opt=-pass-through=-lkernel32 -plugin-opt=-pass-through=-lpthread -plugin-opt=-pass-through=-ladvapi32 -plugin-opt=-pass-through=-lshell32 -plugin-opt=-pass-through=-luser32 -plugin-opt=-pass-through=-lkernel32 -plugin-opt=-pass-through=-lmingw32 -plugin-opt=-pass-through=-lgcc_s -plugin-opt=-pass-through=-lgcc -plugin-opt=-pass-through=-lmoldname -plugin-opt=-pass-through=-lmingwex -plugin-opt=-pass-through=-lmsvcrt -plugin-opt=-pass-through=-lkernel32 -m i386pep -Bdynamic -o cmTC_92d91.exe c:/mingw64/bin/../lib/gcc/x86_64-w64-mingw32/11.2.0/../../../../x86_64-w64-mingw32/lib/../lib/crt2.o c:/mingw64/bin/../lib/gcc/x86_64-w64-mingw32/11.2.0/crtbegin.o -Lc:/mingw64/bin/../lib/gcc/x86_64-w64-mingw32/11.2.0 -Lc:/mingw64/bin/../lib/gcc -Lc:/mingw64/bin/../lib/gcc/x86_64-w64-mingw32/11.2.0/../../../../x86_64-w64-mingw32/lib/../lib -Lc:/mingw64/bin/../lib/gcc/x86_64-w64-mingw32/11.2.0/../../../../lib -Lc:/mingw64/bin/../lib/gcc/x86_64-w64-mingw32/11.2.0/../../../../x86_64-w64-mingw32/lib -Lc:/mingw64/bin/../lib/gcc/x86_64-w64-mingw32/11.2.0/../../.. --whole-archive CMakeFiles\cmTC_92d91.dir/objects.a --no-whole-archive --out-implib libcmTC_92d91.dll.a --major-image-version 0 --minor-image-version 0 -lstdc++ -lmingw32 -lgcc_s -lgcc -lmoldname -lmingwex -lmsvcrt -lkernel32 -lpthread -ladvapi32 -lshell32 -luser32 -lkernel32 -lmingw32 -lgcc_s -lgcc -lmoldname -lmingwex -lmsvcrt -lkernel32 c:/mingw64/bin/../lib/gcc/x86_64-w64-mingw32/11.2.0/crtend.o
COLLECT_GCC_OPTIONS='-v' '-o' 'cmTC_92d91.exe' '-shared-libgcc' '-mtune=generic' '-march=x86-64' '-dumpdir' 'cmTC_92d91.'
mingw32-make[1]: Leaving directory 'F:/RnD/ai-rnd/OpenCV_CPP/cvSaveVideoToFile/build/CMakeFiles/CMakeTmp'



Parsed CXX implicit include dir info from above output: rv=done
  found start of include info
  found start of implicit include info
    add: [c:/mingw64/bin/../lib/gcc/x86_64-w64-mingw32/11.2.0/../../../../include/c++/11.2.0]
    add: [c:/mingw64/bin/../lib/gcc/x86_64-w64-mingw32/11.2.0/../../../../include/c++/11.2.0/x86_64-w64-mingw32]
    add: [c:/mingw64/bin/../lib/gcc/x86_64-w64-mingw32/11.2.0/../../../../include/c++/11.2.0/backward]
    add: [c:/mingw64/bin/../lib/gcc/x86_64-w64-mingw32/11.2.0/include]
    add: [c:/mingw64/bin/../lib/gcc/x86_64-w64-mingw32/11.2.0/../../../../include]
    add: [c:/mingw64/bin/../lib/gcc/x86_64-w64-mingw32/11.2.0/include-fixed]
    add: [c:/mingw64/bin/../lib/gcc/x86_64-w64-mingw32/11.2.0/../../../../x86_64-w64-mingw32/include]
  end of search list found
  collapse include dir [c:/mingw64/bin/../lib/gcc/x86_64-w64-mingw32/11.2.0/../../../../include/c++/11.2.0] ==> [C:/mingw64/include/c++/11.2.0]
  collapse include dir [c:/mingw64/bin/../lib/gcc/x86_64-w64-mingw32/11.2.0/../../../../include/c++/11.2.0/x86_64-w64-mingw32] ==> [C:/mingw64/include/c++/11.2.0/x86_64-w64-mingw32]
  collapse include dir [c:/mingw64/bin/../lib/gcc/x86_64-w64-mingw32/11.2.0/../../../../include/c++/11.2.0/backward] ==> [C:/mingw64/include/c++/11.2.0/backward]
  collapse include dir [c:/mingw64/bin/../lib/gcc/x86_64-w64-mingw32/11.2.0/include] ==> [C:/mingw64/lib/gcc/x86_64-w64-mingw32/11.2.0/include]
  collapse include dir [c:/mingw64/bin/../lib/gcc/x86_64-w64-mingw32/11.2.0/../../../../include] ==> [C:/mingw64/include]
  collapse include dir [c:/mingw64/bin/../lib/gcc/x86_64-w64-mingw32/11.2.0/include-fixed] ==> [C:/mingw64/lib/gcc/x86_64-w64-mingw32/11.2.0/include-fixed]
  collapse include dir [c:/mingw64/bin/../lib/gcc/x86_64-w64-mingw32/11.2.0/../../../../x86_64-w64-mingw32/include] ==> [C:/mingw64/x86_64-w64-mingw32/include]
  implicit include dirs: [C:/mingw64/include/c++/11.2.0;C:/mingw64/include/c++/11.2.0/x86_64-w64-mingw32;C:/mingw64/include/c++/11.2.0/backward;C:/mingw64/lib/gcc/x86_64-w64-mingw32/11.2.0/include;C:/mingw64/include;C:/mingw64/lib/gcc/x86_64-w64-mingw32/11.2.0/include-fixed;C:/mingw64/x86_64-w64-mingw32/include]


Parsed CXX implicit link information from above output:
  link line regex: [^( *|.*[/\])(ld\.exe|CMAKE_LINK_STARTFILE-NOTFOUND|([^/\]+-)?ld|collect2)[^/\]*( |$)]
  ignore line: [Change Dir: F:/RnD/ai-rnd/OpenCV_CPP/cvSaveVideoToFile/build/CMakeFiles/CMakeTmp]
  ignore line: []
  ignore line: [Run Build Command(s):C:/mingw64/bin/mingw32-make.exe -f Makefile cmTC_92d91/fast && C:/mingw64/bin/mingw32-make.exe  -f CMakeFiles\cmTC_92d91.dir\build.make CMakeFiles/cmTC_92d91.dir/build]
  ignore line: [mingw32-make[1]: Entering directory 'F:/RnD/ai-rnd/OpenCV_CPP/cvSaveVideoToFile/build/CMakeFiles/CMakeTmp']
  ignore line: [Building CXX object CMakeFiles/cmTC_92d91.dir/CMakeCXXCompilerABI.cpp.obj]
  ignore line: [C:\mingw64\bin\x86_64-w64-mingw32-g++.exe   -v -o CMakeFiles\cmTC_92d91.dir\CMakeCXXCompilerABI.cpp.obj -c "C:\Program Files\CMake\share\cmake-3.21\Modules\CMakeCXXCompilerABI.cpp"]
  ignore line: [Using built-in specs.]
  ignore line: [COLLECT_GCC=C:\mingw64\bin\x86_64-w64-mingw32-g++.exe]
  ignore line: [OFFLOAD_TARGET_NAMES=nvptx-none]
  ignore line: [Target: x86_64-w64-mingw32]
  ignore line: [Configured with: ../configure --prefix=/R/winlibs64_stage/inst_gcc-11.2.0/share/gcc --build=x86_64-w64-mingw32 --host=x86_64-w64-mingw32 --enable-offload-targets=nvptx-none --with-pkgversion='MinGW-W64 x86_64-posix-seh, built by Brecht Sanders' --with-tune=generic --enable-checking=release --enable-threads=posix --disable-sjlj-exceptions --disable-libunwind-exceptions --disable-serial-configure --disable-bootstrap --enable-host-shared --enable-plugin --disable-default-ssp --disable-rpath --enable-libstdcxx-pch --enable-libstdcxx-time=yes --disable-libstdcxx-debug --disable-version-specific-runtime-libs --with-stabs --disable-symvers --enable-languages=c,c++,fortran,lto,objc,obj-c++,d,jit --disable-gold --disable-nls --disable-stage1-checking --disable-win32-registry --disable-multilib --enable-ld --enable-libquadmath --enable-libada --enable-libssp --enable-libstdcxx --enable-lto --enable-fully-dynamic-string --enable-libgomp --enable-graphite --enable-mingw-wildcard --with-mpc=/d/Prog/winlibs64_stage/custombuilt --with-mpfr=/d/Prog/winlibs64_stage/custombuilt --with-gmp=/d/Prog/winlibs64_stage/custombuilt --with-isl=/d/Prog/winlibs64_stage/custombuilt --enable-install-libiberty --enable-__cxa_atexit --without-included-gettext --with-diagnostics-color=auto --enable-clocale=generic --with-libiconv --with-system-zlib --with-build-sysroot=/R/winlibs64_stage/gcc-11.2.0/build_mingw/mingw-w64 CFLAGS=-I/d/Prog/winlibs64_stage/custombuilt/include/libdl-win32]
  ignore line: [Thread model: posix]
  ignore line: [Supported LTO compression algorithms: zlib zstd]
  ignore line: [gcc version 11.2.0 (MinGW-W64 x86_64-posix-seh  built by Brecht Sanders) ]
  ignore line: [COLLECT_GCC_OPTIONS='-v' '-o' 'CMakeFiles\cmTC_92d91.dir\CMakeCXXCompilerABI.cpp.obj' '-c' '-shared-libgcc' '-mtune=generic' '-march=x86-64' '-dumpdir' 'CMakeFiles\cmTC_92d91.dir\']
  ignore line: [ c:/mingw64/bin/../libexec/gcc/x86_64-w64-mingw32/11.2.0/cc1plus.exe -quiet -v -iprefix c:\mingw64\bin\../lib/gcc/x86_64-w64-mingw32/11.2.0/ -D_REENTRANT C:\Program Files\CMake\share\cmake-3.21\Modules\CMakeCXXCompilerABI.cpp -quiet -dumpdir CMakeFiles\cmTC_92d91.dir\ -dumpbase CMakeCXXCompilerABI.cpp.cpp -dumpbase-ext .cpp -mtune=generic -march=x86-64 -version -o C:\Users\MoWin\AppData\Local\Temp\ccXWSi9t.s]
  ignore line: [GNU C++17 (MinGW-W64 x86_64-posix-seh  built by Brecht Sanders) version 11.2.0 (x86_64-w64-mingw32)]
  ignore line: [	compiled by GNU C version 11.2.0  GMP version 6.2.1  MPFR version 4.1.0  MPC version 1.2.1  isl version isl-0.24-GMP]
  ignore line: []
  ignore line: [GGC heuristics: --param ggc-min-expand=100 --param ggc-min-heapsize=131072]
  ignore line: [ignoring duplicate directory "c:/mingw64/lib/gcc/../../lib/gcc/x86_64-w64-mingw32/11.2.0/../../../../include/c++/11.2.0"]
  ignore line: [ignoring duplicate directory "c:/mingw64/lib/gcc/../../lib/gcc/x86_64-w64-mingw32/11.2.0/../../../../include/c++/11.2.0/x86_64-w64-mingw32"]
  ignore line: [ignoring duplicate directory "c:/mingw64/lib/gcc/../../lib/gcc/x86_64-w64-mingw32/11.2.0/../../../../include/c++/11.2.0/backward"]
  ignore line: [ignoring duplicate directory "c:/mingw64/lib/gcc/../../lib/gcc/x86_64-w64-mingw32/11.2.0/include"]
  ignore line: [ignoring nonexistent directory "R:/winlibs64_stage/inst_gcc-11.2.0/share/gcc/include"]
  ignore line: [ignoring nonexistent directory "/R/winlibs64_stage/inst_gcc-11.2.0/share/gcc/include"]
  ignore line: [ignoring duplicate directory "c:/mingw64/lib/gcc/../../lib/gcc/x86_64-w64-mingw32/11.2.0/include-fixed"]
  ignore line: [ignoring duplicate directory "c:/mingw64/lib/gcc/../../lib/gcc/x86_64-w64-mingw32/11.2.0/../../../../x86_64-w64-mingw32/include"]
  ignore line: [ignoring nonexistent directory "/mingw/include"]
  ignore line: [#include "..." search starts here:]
  ignore line: [#include <...> search starts here:]
  ignore line: [ c:\mingw64\bin\../lib/gcc/x86_64-w64-mingw32/11.2.0/../../../../include/c++/11.2.0]
  ignore line: [ c:\mingw64\bin\../lib/gcc/x86_64-w64-mingw32/11.2.0/../../../../include/c++/11.2.0/x86_64-w64-mingw32]
  ignore line: [ c:\mingw64\bin\../lib/gcc/x86_64-w64-mingw32/11.2.0/../../../../include/c++/11.2.0/backward]
  ignore line: [ c:\mingw64\bin\../lib/gcc/x86_64-w64-mingw32/11.2.0/include]
  ignore line: [ c:\mingw64\bin\../lib/gcc/x86_64-w64-mingw32/11.2.0/../../../../include]
  ignore line: [ c:\mingw64\bin\../lib/gcc/x86_64-w64-mingw32/11.2.0/include-fixed]
  ignore line: [ c:\mingw64\bin\../lib/gcc/x86_64-w64-mingw32/11.2.0/../../../../x86_64-w64-mingw32/include]
  ignore line: [End of search list.]
  ignore line: [GNU C++17 (MinGW-W64 x86_64-posix-seh  built by Brecht Sanders) version 11.2.0 (x86_64-w64-mingw32)]
  ignore line: [	compiled by GNU C version 11.2.0  GMP version 6.2.1  MPFR version 4.1.0  MPC version 1.2.1  isl version isl-0.24-GMP]
  ignore line: []
  ignore line: [GGC heuristics: --param ggc-min-expand=100 --param ggc-min-heapsize=131072]
  ignore line: [Compiler executable checksum: 9a0bfe9cfea87d8027f88315aa7eb176]
  ignore line: [COLLECT_GCC_OPTIONS='-v' '-o' 'CMakeFiles\cmTC_92d91.dir\CMakeCXXCompilerABI.cpp.obj' '-c' '-shared-libgcc' '-mtune=generic' '-march=x86-64' '-dumpdir' 'CMakeFiles\cmTC_92d91.dir\']
  ignore line: [ c:/mingw64/bin/../lib/gcc/x86_64-w64-mingw32/11.2.0/../../../../x86_64-w64-mingw32/bin/as.exe -v -o CMakeFiles\cmTC_92d91.dir\CMakeCXXCompilerABI.cpp.obj C:\Users\MoWin\AppData\Local\Temp\ccXWSi9t.s]
  ignore line: [GNU assembler version 2.37 (x86_64-w64-mingw32) using BFD version (Binutils for MinGW-W64 x86_64  built by Brecht Sanders) 2.37]
  ignore line: [COMPILER_PATH=c:/mingw64/bin/../libexec/gcc/x86_64-w64-mingw32/11.2.0/]
  ignore line: [c:/mingw64/bin/../libexec/gcc/]
  ignore line: [c:/mingw64/bin/../lib/gcc/x86_64-w64-mingw32/11.2.0/../../../../x86_64-w64-mingw32/bin/]
  ignore line: [LIBRARY_PATH=c:/mingw64/bin/../lib/gcc/x86_64-w64-mingw32/11.2.0/]
  ignore line: [c:/mingw64/bin/../lib/gcc/]
  ignore line: [c:/mingw64/bin/../lib/gcc/x86_64-w64-mingw32/11.2.0/../../../../x86_64-w64-mingw32/lib/../lib/]
  ignore line: [c:/mingw64/bin/../lib/gcc/x86_64-w64-mingw32/11.2.0/../../../../lib/]
  ignore line: [c:/mingw64/bin/../lib/gcc/x86_64-w64-mingw32/11.2.0/../../../../x86_64-w64-mingw32/lib/]
  ignore line: [c:/mingw64/bin/../lib/gcc/x86_64-w64-mingw32/11.2.0/../../../]
  ignore line: [COLLECT_GCC_OPTIONS='-v' '-o' 'CMakeFiles\cmTC_92d91.dir\CMakeCXXCompilerABI.cpp.obj' '-c' '-shared-libgcc' '-mtune=generic' '-march=x86-64' '-dumpdir' 'CMakeFiles\cmTC_92d91.dir\CMakeCXXCompilerABI.cpp.']
  ignore line: [Linking CXX executable cmTC_92d91.exe]
  ignore line: ["C:\Program Files\CMake\bin\cmake.exe" -E cmake_link_script CMakeFiles\cmTC_92d91.dir\link.txt --verbose=1]
  ignore line: ["C:\Program Files\CMake\bin\cmake.exe" -E rm -f CMakeFiles\cmTC_92d91.dir/objects.a]
  ignore line: [C:\mingw64\bin\ar.exe qc CMakeFiles\cmTC_92d91.dir/objects.a @CMakeFiles\cmTC_92d91.dir\objects1.rsp]
  ignore line: [C:\mingw64\bin\x86_64-w64-mingw32-g++.exe  -v -Wl --whole-archive CMakeFiles\cmTC_92d91.dir/objects.a -Wl --no-whole-archive -o cmTC_92d91.exe -Wl --out-implib libcmTC_92d91.dll.a -Wl --major-image-version 0 --minor-image-version 0 ]
  ignore line: [Using built-in specs.]
  ignore line: [COLLECT_GCC=C:\mingw64\bin\x86_64-w64-mingw32-g++.exe]
  ignore line: [COLLECT_LTO_WRAPPER=c:/mingw64/bin/../libexec/gcc/x86_64-w64-mingw32/11.2.0/lto-wrapper.exe]
  ignore line: [OFFLOAD_TARGET_NAMES=nvptx-none]
  ignore line: [Target: x86_64-w64-mingw32]
  ignore line: [Configured with: ../configure --prefix=/R/winlibs64_stage/inst_gcc-11.2.0/share/gcc --build=x86_64-w64-mingw32 --host=x86_64-w64-mingw32 --enable-offload-targets=nvptx-none --with-pkgversion='MinGW-W64 x86_64-posix-seh, built by Brecht Sanders' --with-tune=generic --enable-checking=release --enable-threads=posix --disable-sjlj-exceptions --disable-libunwind-exceptions --disable-serial-configure --disable-bootstrap --enable-host-shared --enable-plugin --disable-default-ssp --disable-rpath --enable-libstdcxx-pch --enable-libstdcxx-time=yes --disable-libstdcxx-debug --disable-version-specific-runtime-libs --with-stabs --disable-symvers --enable-languages=c,c++,fortran,lto,objc,obj-c++,d,jit --disable-gold --disable-nls --disable-stage1-checking --disable-win32-registry --disable-multilib --enable-ld --enable-libquadmath --enable-libada --enable-libssp --enable-libstdcxx --enable-lto --enable-fully-dynamic-string --enable-libgomp --enable-graphite --enable-mingw-wildcard --with-mpc=/d/Prog/winlibs64_stage/custombuilt --with-mpfr=/d/Prog/winlibs64_stage/custombuilt --with-gmp=/d/Prog/winlibs64_stage/custombuilt --with-isl=/d/Prog/winlibs64_stage/custombuilt --enable-install-libiberty --enable-__cxa_atexit --without-included-gettext --with-diagnostics-color=auto --enable-clocale=generic --with-libiconv --with-system-zlib --with-build-sysroot=/R/winlibs64_stage/gcc-11.2.0/build_mingw/mingw-w64 CFLAGS=-I/d/Prog/winlibs64_stage/custombuilt/include/libdl-win32]
  ignore line: [Thread model: posix]
  ignore line: [Supported LTO compression algorithms: zlib zstd]
  ignore line: [gcc version 11.2.0 (MinGW-W64 x86_64-posix-seh  built by Brecht Sanders) ]
  ignore line: [COMPILER_PATH=c:/mingw64/bin/../libexec/gcc/x86_64-w64-mingw32/11.2.0/]
  ignore line: [c:/mingw64/bin/../libexec/gcc/]
  ignore line: [c:/mingw64/bin/../lib/gcc/x86_64-w64-mingw32/11.2.0/../../../../x86_64-w64-mingw32/bin/]
  ignore line: [LIBRARY_PATH=c:/mingw64/bin/../lib/gcc/x86_64-w64-mingw32/11.2.0/]
  ignore line: [c:/mingw64/bin/../lib/gcc/]
  ignore line: [c:/mingw64/bin/../lib/gcc/x86_64-w64-mingw32/11.2.0/../../../../x86_64-w64-mingw32/lib/../lib/]
  ignore line: [c:/mingw64/bin/../lib/gcc/x86_64-w64-mingw32/11.2.0/../../../../lib/]
  ignore line: [c:/mingw64/bin/../lib/gcc/x86_64-w64-mingw32/11.2.0/../../../../x86_64-w64-mingw32/lib/]
  ignore line: [c:/mingw64/bin/../lib/gcc/x86_64-w64-mingw32/11.2.0/../../../]
  ignore line: [COLLECT_GCC_OPTIONS='-v' '-o' 'cmTC_92d91.exe' '-shared-libgcc' '-mtune=generic' '-march=x86-64' '-dumpdir' 'cmTC_92d91.']
  link line: [ c:/mingw64/bin/../libexec/gcc/x86_64-w64-mingw32/11.2.0/collect2.exe -plugin c:/mingw64/bin/../libexec/gcc/x86_64-w64-mingw32/11.2.0/liblto_plugin.dll -plugin-opt=c:/mingw64/bin/../libexec/gcc/x86_64-w64-mingw32/11.2.0/lto-wrapper.exe -plugin-opt=-fresolution=C:\Users\MoWin\AppData\Local\Temp\ccTiGGyI.res -plugin-opt=-pass-through=-lmingw32 -plugin-opt=-pass-through=-lgcc_s -plugin-opt=-pass-through=-lgcc -plugin-opt=-pass-through=-lmoldname -plugin-opt=-pass-through=-lmingwex -plugin-opt=-pass-through=-lmsvcrt -plugin-opt=-pass-through=-lkernel32 -plugin-opt=-pass-through=-lpthread -plugin-opt=-pass-through=-ladvapi32 -plugin-opt=-pass-through=-lshell32 -plugin-opt=-pass-through=-luser32 -plugin-opt=-pass-through=-lkernel32 -plugin-opt=-pass-through=-lmingw32 -plugin-opt=-pass-through=-lgcc_s -plugin-opt=-pass-through=-lgcc -plugin-opt=-pass-through=-lmoldname -plugin-opt=-pass-through=-lmingwex -plugin-opt=-pass-through=-lmsvcrt -plugin-opt=-pass-through=-lkernel32 -m i386pep -Bdynamic -o cmTC_92d91.exe c:/mingw64/bin/../lib/gcc/x86_64-w64-mingw32/11.2.0/../../../../x86_64-w64-mingw32/lib/../lib/crt2.o c:/mingw64/bin/../lib/gcc/x86_64-w64-mingw32/11.2.0/crtbegin.o -Lc:/mingw64/bin/../lib/gcc/x86_64-w64-mingw32/11.2.0 -Lc:/mingw64/bin/../lib/gcc -Lc:/mingw64/bin/../lib/gcc/x86_64-w64-mingw32/11.2.0/../../../../x86_64-w64-mingw32/lib/../lib -Lc:/mingw64/bin/../lib/gcc/x86_64-w64-mingw32/11.2.0/../../../../lib -Lc:/mingw64/bin/../lib/gcc/x86_64-w64-mingw32/11.2.0/../../../../x86_64-w64-mingw32/lib -Lc:/mingw64/bin/../lib/gcc/x86_64-w64-mingw32/11.2.0/../../.. --whole-archive CMakeFiles\cmTC_92d91.dir/objects.a --no-whole-archive --out-implib libcmTC_92d91.dll.a --major-image-version 0 --minor-image-version 0 -lstdc++ -lmingw32 -lgcc_s -lgcc -lmoldname -lmingwex -lmsvcrt -lkernel32 -lpthread -ladvapi32 -lshell32 -luser32 -lkernel32 -lmingw32 -lgcc_s -lgcc -lmoldname -lmingwex -lmsvcrt -lkernel32 c:/mingw64/bin/../lib/gcc/x86_64-w64-mingw32/11.2.0/crtend.o]
    arg [c:/mingw64/bin/../libexec/gcc/x86_64-w64-mingw32/11.2.0/collect2.exe] ==> ignore
    arg [-plugin] ==> ignore
    arg [c:/mingw64/bin/../libexec/gcc/x86_64-w64-mingw32/11.2.0/liblto_plugin.dll] ==> ignore
    arg [-plugin-opt=c:/mingw64/bin/../libexec/gcc/x86_64-w64-mingw32/11.2.0/lto-wrapper.exe] ==> ignore
    arg [-plugin-opt=-fresolution=C:\Users\MoWin\AppData\Local\Temp\ccTiGGyI.res] ==> ignore
    arg [-plugin-opt=-pass-through=-lmingw32] ==> ignore
    arg [-plugin-opt=-pass-through=-lgcc_s] ==> ignore
    arg [-plugin-opt=-pass-through=-lgcc] ==> ignore
    arg [-plugin-opt=-pass-through=-lmoldname] ==> ignore
    arg [-plugin-opt=-pass-through=-lmingwex] ==> ignore
    arg [-plugin-opt=-pass-through=-lmsvcrt] ==> ignore
    arg [-plugin-opt=-pass-through=-lkernel32] ==> ignore
    arg [-plugin-opt=-pass-through=-lpthread] ==> ignore
    arg [-plugin-opt=-pass-through=-ladvapi32] ==> ignore
    arg [-plugin-opt=-pass-through=-lshell32] ==> ignore
    arg [-plugin-opt=-pass-through=-luser32] ==> ignore
    arg [-plugin-opt=-pass-through=-lkernel32] ==> ignore
    arg [-plugin-opt=-pass-through=-lmingw32] ==> ignore
    arg [-plugin-opt=-pass-through=-lgcc_s] ==> ignore
    arg [-plugin-opt=-pass-through=-lgcc] ==> ignore
    arg [-plugin-opt=-pass-through=-lmoldname] ==> ignore
    arg [-plugin-opt=-pass-through=-lmingwex] ==> ignore
    arg [-plugin-opt=-pass-through=-lmsvcrt] ==> ignore
    arg [-plugin-opt=-pass-through=-lkernel32] ==> ignore
    arg [-m] ==> ignore
    arg [i386pep] ==> ignore
    arg [-Bdynamic] ==> search dynamic
    arg [-o] ==> ignore
    arg [cmTC_92d91.exe] ==> ignore
    arg [c:/mingw64/bin/../lib/gcc/x86_64-w64-mingw32/11.2.0/../../../../x86_64-w64-mingw32/lib/../lib/crt2.o] ==> obj [c:/mingw64/bin/../lib/gcc/x86_64-w64-mingw32/11.2.0/../../../../x86_64-w64-mingw32/lib/../lib/crt2.o]
    arg [c:/mingw64/bin/../lib/gcc/x86_64-w64-mingw32/11.2.0/crtbegin.o] ==> obj [c:/mingw64/bin/../lib/gcc/x86_64-w64-mingw32/11.2.0/crtbegin.o]
    arg [-Lc:/mingw64/bin/../lib/gcc/x86_64-w64-mingw32/11.2.0] ==> dir [c:/mingw64/bin/../lib/gcc/x86_64-w64-mingw32/11.2.0]
    arg [-Lc:/mingw64/bin/../lib/gcc] ==> dir [c:/mingw64/bin/../lib/gcc]
    arg [-Lc:/mingw64/bin/../lib/gcc/x86_64-w64-mingw32/11.2.0/../../../../x86_64-w64-mingw32/lib/../lib] ==> dir [c:/mingw64/bin/../lib/gcc/x86_64-w64-mingw32/11.2.0/../../../../x86_64-w64-mingw32/lib/../lib]
    arg [-Lc:/mingw64/bin/../lib/gcc/x86_64-w64-mingw32/11.2.0/../../../../lib] ==> dir [c:/mingw64/bin/../lib/gcc/x86_64-w64-mingw32/11.2.0/../../../../lib]
    arg [-Lc:/mingw64/bin/../lib/gcc/x86_64-w64-mingw32/11.2.0/../../../../x86_64-w64-mingw32/lib] ==> dir [c:/mingw64/bin/../lib/gcc/x86_64-w64-mingw32/11.2.0/../../../../x86_64-w64-mingw32/lib]
    arg [-Lc:/mingw64/bin/../lib/gcc/x86_64-w64-mingw32/11.2.0/../../..] ==> dir [c:/mingw64/bin/../lib/gcc/x86_64-w64-mingw32/11.2.0/../../..]
    arg [--whole-archive] ==> ignore
    arg [CMakeFiles\cmTC_92d91.dir/objects.a] ==> ignore
    arg [--no-whole-archive] ==> ignore
    arg [--out-implib] ==> ignore
    arg [libcmTC_92d91.dll.a] ==> ignore
    arg [--major-image-version] ==> ignore
    arg [0] ==> ignore
    arg [--minor-image-version] ==> ignore
    arg [0] ==> ignore
    arg [-lstdc++] ==> lib [stdc++]
    arg [-lmingw32] ==> lib [mingw32]
    arg [-lgcc_s] ==> lib [gcc_s]
    arg [-lgcc] ==> lib [gcc]
    arg [-lmoldname] ==> lib [moldname]
    arg [-lmingwex] ==> lib [mingwex]
    arg [-lmsvcrt] ==> lib [msvcrt]
    arg [-lkernel32] ==> lib [kernel32]
    arg [-lpthread] ==> lib [pthread]
    arg [-ladvapi32] ==> lib [advapi32]
    arg [-lshell32] ==> lib [shell32]
    arg [-luser32] ==> lib [user32]
    arg [-lkernel32] ==> lib [kernel32]
    arg [-lmingw32] ==> lib [mingw32]
    arg [-lgcc_s] ==> lib [gcc_s]
    arg [-lgcc] ==> lib [gcc]
    arg [-lmoldname] ==> lib [moldname]
    arg [-lmingwex] ==> lib [mingwex]
    arg [-lmsvcrt] ==> lib [msvcrt]
    arg [-lkernel32] ==> lib [kernel32]
    arg [c:/mingw64/bin/../lib/gcc/x86_64-w64-mingw32/11.2.0/crtend.o] ==> obj [c:/mingw64/bin/../lib/gcc/x86_64-w64-mingw32/11.2.0/crtend.o]
  remove lib [msvcrt]
  remove lib [msvcrt]
  collapse obj [c:/mingw64/bin/../lib/gcc/x86_64-w64-mingw32/11.2.0/../../../../x86_64-w64-mingw32/lib/../lib/crt2.o] ==> [C:/mingw64/x86_64-w64-mingw32/lib/crt2.o]
  collapse obj [c:/mingw64/bin/../lib/gcc/x86_64-w64-mingw32/11.2.0/crtbegin.o] ==> [C:/mingw64/lib/gcc/x86_64-w64-mingw32/11.2.0/crtbegin.o]
  collapse obj [c:/mingw64/bin/../lib/gcc/x86_64-w64-mingw32/11.2.0/crtend.o] ==> [C:/mingw64/lib/gcc/x86_64-w64-mingw32/11.2.0/crtend.o]
  collapse library dir [c:/mingw64/bin/../lib/gcc/x86_64-w64-mingw32/11.2.0] ==> [C:/mingw64/lib/gcc/x86_64-w64-mingw32/11.2.0]
  collapse library dir [c:/mingw64/bin/../lib/gcc] ==> [C:/mingw64/lib/gcc]
  collapse library dir [c:/mingw64/bin/../lib/gcc/x86_64-w64-mingw32/11.2.0/../../../../x86_64-w64-mingw32/lib/../lib] ==> [C:/mingw64/x86_64-w64-mingw32/lib]
  collapse library dir [c:/mingw64/bin/../lib/gcc/x86_64-w64-mingw32/11.2.0/../../../../lib] ==> [C:/mingw64/lib]
  collapse library dir [c:/mingw64/bin/../lib/gcc/x86_64-w64-mingw32/11.2.0/../../../../x86_64-w64-mingw32/lib] ==> [C:/mingw64/x86_64-w64-mingw32/lib]
  collapse library dir [c:/mingw64/bin/../lib/gcc/x86_64-w64-mingw32/11.2.0/../../..] ==> [C:/mingw64/lib]
  implicit libs: [stdc++;mingw32;gcc_s;gcc;moldname;mingwex;kernel32;pthread;advapi32;shell32;user32;kernel32;mingw32;gcc_s;gcc;moldname;mingwex;kernel32]
  implicit objs: [C:/mingw64/x86_64-w64-mingw32/lib/crt2.o;C:/mingw64/lib/gcc/x86_64-w64-mingw32/11.2.0/crtbegin.o;C:/mingw64/lib/gcc/x86_64-w64-mingw32/11.2.0/crtend.o]
  implicit dirs: [C:/mingw64/lib/gcc/x86_64-w64-mingw32/11.2.0;C:/mingw64/lib/gcc;C:/mingw64/x86_64-w64-mingw32/lib;C:/mingw64/lib]
  implicit fwks: []


